<?xml version="1.0" encoding="UTF-8"?><?xml-stylesheet type="text/xsl" href="static/style.xsl"?><OAI-PMH xmlns="http://www.openarchives.org/OAI/2.0/" xmlns:xsi="http://www.w3.org/2001/XMLSchema-instance" xsi:schemaLocation="http://www.openarchives.org/OAI/2.0/ http://www.openarchives.org/OAI/2.0/OAI-PMH.xsd"><responseDate>2025-03-19T06:42:22Z</responseDate><request verb="ListRecords" metadataPrefix="oai_dc" set="com_123456789_3">https://pubdata.leuphana.de/oai/request</request><ListRecords><record><header><identifier>oai:pubdata.leuphana.de:20.500.14123/233</identifier><datestamp>2024-12-16T15:14:09Z</datestamp><setSpec>com_123456789_3</setSpec><setSpec>col_123456789_5</setSpec></header><metadata><oai_dc:dc xmlns:oai_dc="http://www.openarchives.org/OAI/2.0/oai_dc/" xmlns:dc="http://purl.org/dc/elements/1.1/" xmlns:xsi="http://www.w3.org/2001/XMLSchema-instance" xmlns:doc="http://www.lyncode.com/xoai" xsi:schemaLocation="http://www.openarchives.org/OAI/2.0/oai_dc/ http://www.openarchives.org/OAI/2.0/oai_dc.xsd"><dc:title>Studies on biodegradability of ionic liquids_categorised according to methods, 2020, V1</dc:title><dc:creator>{"affiliationIdentifierRor":["02w2y2t16"],"organizationName":[""],"ror":[""],"affiliation":["Institut für Nachhaltige Chemie (INSC), Leuphana Universität Lüneburg"],"givenName":["Ann-Kathrin"],"familyName":["Amsel"],"orcid":["0000-0003-1097-4063"],"authorityType":["Person"]}</dc:creator><dc:creator>{"affiliationIdentifierRor":["02w2y2t16"],"organizationName":[""],"ror":[""],"affiliation":["Institut für Nachhaltige Chemie (INSC), Leuphana Universität Lüneburg"],"givenName":["Klaus"],"familyName":["Kümmerer"],"orcid":["0000-0003-2027-6488"],"gnd":["118066382"],"authorityType":["Person"]}</dc:creator><dc:creator>{"affiliationIdentifierRor":["02w2y2t16"],"organizationName":[""],"ror":[""],"affiliation":["Institut für Nachhaltige Chemie (INSC), Leuphana Universität Lüneburg"],"givenName":["Oliver"],"familyName":["Olsson"],"orcid":["0000-0003-0082-1442"],"authorityType":["Person"]}</dc:creator><dc:date>2024-04-23T08:38:47Z</dc:date><dc:date>2024-04-23T08:38:47Z</dc:date><dc:date>2024-04-23</dc:date><dc:date>2024-04-18T08:26:07Z</dc:date><dc:type>Dataset</dc:type><dc:identifier>https://hdl.handle.net/20.500.14123/233</dc:identifier><dc:format>application/vnd.openxmlformats-officedocument.spreadsheetml.sheet</dc:format></oai_dc:dc></metadata></record><record><header><identifier>oai:pubdata.leuphana.de:20.500.14123/1449</identifier><datestamp>2024-11-15T08:42:40Z</datestamp><setSpec>com_123456789_3</setSpec><setSpec>col_123456789_4</setSpec></header><metadata><oai_dc:dc xmlns:oai_dc="http://www.openarchives.org/OAI/2.0/oai_dc/" xmlns:dc="http://purl.org/dc/elements/1.1/" xmlns:xsi="http://www.w3.org/2001/XMLSchema-instance" xmlns:doc="http://www.lyncode.com/xoai" xsi:schemaLocation="http://www.openarchives.org/OAI/2.0/oai_dc/ http://www.openarchives.org/OAI/2.0/oai_dc.xsd"><dc:title>Sleepcare Outcome Data 2024</dc:title><dc:creator>{"affiliationIdentifierRor":["02w2y2t16"],"organizationName":[""],"ror":[""],"affiliation":["Institute of Sustainability Psychology (ISP), Leuphana Universität Lüneburg"],"givenName":["Hanna Amira"],"familyName":["Brückner"],"orcid":["0009-0003-4406-7872"],"authorityType":["Person"]}</dc:creator><dc:date>2024-10-02T07:26:16Z</dc:date><dc:date>2024-10-02T07:26:16Z</dc:date><dc:date>2024-10-02</dc:date><dc:date>2024-09-30T14:39:54Z</dc:date><dc:type>Dataset</dc:type><dc:identifier>https://hdl.handle.net/20.500.14123/1449</dc:identifier><dc:identifier>https://doi.org/10.48548/pubdata-1384</dc:identifier><dc:format>application/vnd.openxmlformats-officedocument.spreadsheetml.sheet</dc:format><dc:format>application/pdf</dc:format></oai_dc:dc></metadata></record><record><header><identifier>oai:pubdata.leuphana.de:20.500.14123/18</identifier><datestamp>2024-08-23T07:33:09Z</datestamp><setSpec>com_123456789_3</setSpec><setSpec>col_123456789_4</setSpec></header><metadata><oai_dc:dc xmlns:oai_dc="http://www.openarchives.org/OAI/2.0/oai_dc/" xmlns:dc="http://purl.org/dc/elements/1.1/" xmlns:xsi="http://www.w3.org/2001/XMLSchema-instance" xmlns:doc="http://www.lyncode.com/xoai" xsi:schemaLocation="http://www.openarchives.org/OAI/2.0/oai_dc/ http://www.openarchives.org/OAI/2.0/oai_dc.xsd"><dc:title>Eberswalde Carabid Abundances 1999-2021</dc:title><dc:creator>{"affiliationIdentifierRor":["01ge5zt06"],"organizationName":[""],"ror":[""],"affiliation":["Applied Ecology and Zoology, Eberswalde University for Sustainable Development"],"givenName":["Andreas"],"familyName":["Linde"],"orcid":["0000-0002-0154-7943"],"authorityType":["Person"]}</dc:creator><dc:creator>{"affiliationIdentifierRor":[""],"organizationName":[""],"ror":[""],"affiliation":["Biosphere Reserves Institute, Eberswalde University for Sustainable Development / Institut für Ökologie, Leuphana Universität Lüneburg"],"givenName":["Fabio"],"familyName":["Weiss"],"orcid":["0000-0003-1078-1528"],"authorityType":["Person"]}</dc:creator><dc:date>2022-07-14T07:40:20Z</dc:date><dc:date>2022-07-14T07:40:20Z</dc:date><dc:date>2022-07-14</dc:date><dc:date>2022-07-13T15:05:07Z</dc:date><dc:type>Dataset</dc:type><dc:identifier>https://hdl.handle.net/20.500.14123/18</dc:identifier><dc:identifier>https://doi.org/10.48548/pubdata-11</dc:identifier><dc:format>application/octet-stream</dc:format><dc:format>text/plain</dc:format></oai_dc:dc></metadata></record><resumptionToken completeListSize="123" cursor="0">oai_dc///com_123456789_3/100</resumptionToken></ListRecords></OAI-PMH>