<?xml version="1.0" encoding="UTF-8"?><?xml-stylesheet type="text/xsl" href="static/style.xsl"?><OAI-PMH xmlns="http://www.openarchives.org/OAI/2.0/" xmlns:xsi="http://www.w3.org/2001/XMLSchema-instance" xsi:schemaLocation="http://www.openarchives.org/OAI/2.0/ http://www.openarchives.org/OAI/2.0/OAI-PMH.xsd"><responseDate>2025-03-26T14:53:31Z</responseDate><request verb="ListRecords" metadataPrefix="oai_dc" set="com_123456789_3">https://pubdata.leuphana.de/oai/request</request><ListRecords>
<record><header><identifier>oai:pubdata.leuphana.de:20.500.14123/72</identifier><datestamp>2024-08-16T11:51:27Z</datestamp><setSpec>com_123456789_3</setSpec><setSpec>col_123456789_4</setSpec></header><metadata><oai_dc:dc xmlns:oai_dc="http://www.openarchives.org/OAI/2.0/oai_dc/" xmlns:dc="http://purl.org/dc/elements/1.1/" xmlns:xsi="http://www.w3.org/2001/XMLSchema-instance" xmlns:doc="http://www.lyncode.com/xoai" xsi:schemaLocation="http://www.openarchives.org/OAI/2.0/oai_dc/ http://www.openarchives.org/OAI/2.0/oai_dc.xsd">
   <dc:title>Woody-plant based ecosystem services based on household survey: Data from southwestern Ethiopia</dc:title>
   <dc:creator>{"affiliationIdentifierRor":["02w2y2t16"],"organizationName":[""],"ror":[""],"affiliation":["Social-ecological Systems Institute (SESI), Leuphana Universität Lüneburg"],"givenName":["Dula Wakassa"],"familyName":["Duguma"],"orcid":["0000-0003-4581-8351"],"authorityType":["Person"]}</dc:creator>
   <dc:creator>{"affiliationIdentifierRor":["02w2y2t16"],"organizationName":[""],"ror":[""],"affiliation":["Social-ecological Systems Institute (SESI), Leuphana Universität Lüneburg"],"givenName":["Girma"],"familyName":["Shumi"],"orcid":["0000-0001-7386-6815"],"authorityType":["Person"]}</dc:creator>
   <dc:creator>{"affiliationIdentifierRor":["02w2y2t16"],"organizationName":[""],"ror":[""],"affiliation":["Social-ecological Systems Institute (SESI), Leuphana Universität Lüneburg"],"givenName":["Jörn"],"familyName":["Fischer"],"orcid":["0000-0003-3187-8978"],"gnd":["1051419840"],"authorityType":["Person"]}</dc:creator>
   <dc:date>2024-03-11T13:11:27Z</dc:date>
   <dc:date>2024-03-11T13:11:27Z</dc:date>
   <dc:date>2024-03-11</dc:date>
   <dc:date>2024-03-08T13:56:45Z</dc:date>
   <dc:type>Dataset</dc:type>
   <dc:identifier>https://hdl.handle.net/20.500.14123/72</dc:identifier>
   <dc:identifier>https://doi.org/10.48548/pubdata-53</dc:identifier>
   <dc:format>application/vnd.openxmlformats-officedocument.spreadsheetml.sheet</dc:format>
</oai_dc:dc></metadata></record>
<record><header><identifier>oai:pubdata.leuphana.de:20.500.14123/96</identifier><datestamp>2024-08-23T07:29:19Z</datestamp><setSpec>com_123456789_3</setSpec><setSpec>col_123456789_4</setSpec></header><metadata><oai_dc:dc xmlns:oai_dc="http://www.openarchives.org/OAI/2.0/oai_dc/" xmlns:dc="http://purl.org/dc/elements/1.1/" xmlns:xsi="http://www.w3.org/2001/XMLSchema-instance" xmlns:doc="http://www.lyncode.com/xoai" xsi:schemaLocation="http://www.openarchives.org/OAI/2.0/oai_dc/ http://www.openarchives.org/OAI/2.0/oai_dc.xsd">
   <dc:title>Experimental data on ready biodegradability, OECD 301D (Closed Bottle Test), 2023, V1</dc:title>
   <dc:creator>{"affiliationIdentifierRor":["02w2y2t16"],"organizationName":[""],"ror":[""],"affiliation":["Institut für Nachhaltige Chemie (INSC), Leuphana Universität Lüneburg"],"givenName":["Oliver"],"familyName":["Olsson"],"orcid":["0000-0003-0082-1442"],"authorityType":["Person"]}</dc:creator>
   <dc:creator>{"affiliationIdentifierRor":["02w2y2t16"],"organizationName":[""],"ror":[""],"affiliation":["Institut für Nachhaltige Chemie (INSC), Leuphana Universität Lüneburg"],"givenName":["Evgenia"],"familyName":["Logunova"],"orcid":[""],"authorityType":["Person"]}</dc:creator>
   <dc:creator>{"affiliationIdentifierRor":[""],"organizationName":[""],"ror":[""],"affiliation":[""],"givenName":["Morten"],"familyName":["Suk"],"orcid":["0000-0002-5875-3078"],"authorityType":["Person"]}</dc:creator>
   <dc:creator>{"affiliationIdentifierRor":["02w2y2t16"],"organizationName":[""],"ror":[""],"affiliation":["Institut für Nachhaltige Chemie (INSC), Leuphana Universität Lüneburg"],"givenName":["Klaus"],"familyName":["Kümmerer"],"orcid":["0000-0003-2027-6488"],"gnd":["118066382"],"authorityType":["Person"]}</dc:creator>
   <dc:date>2024-02-14T09:31:15Z</dc:date>
   <dc:date>2024-02-14T09:31:15Z</dc:date>
   <dc:date>2024-02-14</dc:date>
   <dc:date>2024-02-12T11:05:00Z</dc:date>
   <dc:type>Dataset</dc:type>
   <dc:identifier>https://hdl.handle.net/20.500.14123/96</dc:identifier>
   <dc:identifier>https://doi.org/10.48548/pubdata-77</dc:identifier>
   <dc:format>application/octet-stream</dc:format>
</oai_dc:dc></metadata></record>
<record><header status="deleted"><identifier>oai:pubdata.leuphana.de:20.500.14123/1137</identifier><datestamp>2024-08-12T09:53:33Z</datestamp><setSpec>com_123456789_3</setSpec><setSpec>col_123456789_5</setSpec></header></record><record><header><identifier>oai:pubdata.leuphana.de:20.500.14123/62</identifier><datestamp>2024-11-01T08:36:56Z</datestamp><setSpec>com_123456789_3</setSpec><setSpec>col_123456789_4</setSpec></header><metadata><oai_dc:dc xmlns:oai_dc="http://www.openarchives.org/OAI/2.0/oai_dc/" xmlns:dc="http://purl.org/dc/elements/1.1/" xmlns:xsi="http://www.w3.org/2001/XMLSchema-instance" xmlns:doc="http://www.lyncode.com/xoai" xsi:schemaLocation="http://www.openarchives.org/OAI/2.0/oai_dc/ http://www.openarchives.org/OAI/2.0/oai_dc.xsd">
   <dc:title>Eberswalde Carabid Monitoring 1999-2022 - Full Data</dc:title>
   <dc:creator>{"affiliationIdentifierRor":["01ge5zt06"],"organizationName":[""],"ror":[""],"affiliation":["Applied Ecology and Zoology, Eberswalde University for Sustainable Development"],"givenName":["Andreas"],"familyName":["Linde"],"orcid":["0000-0002-0154-7943"],"authorityType":["Person"]}</dc:creator>
   <dc:creator>{"affiliationIdentifierRor":["01ge5zt06"],"organizationName":[""],"ror":[""],"affiliation":["Applied Ecology and Zoology, Eberswalde University for Sustainable Development / Materialprüfanstalt Brandenburg GmbH"],"givenName":["Thomas"],"familyName":["Kolling"],"orcid":[""],"authorityType":["Person"]}</dc:creator>
   <dc:creator>{"affiliationIdentifierRor":[""],"organizationName":[""],"ror":[""],"affiliation":["Biosphere Reserves Institute, Eberswalde University for Sustainable Development / Institut für Ökologie, Leuphana Universität Lüneburg"],"givenName":["Fabio"],"familyName":["Weiss"],"orcid":["0000-0003-1078-1528"],"authorityType":["Person"]}</dc:creator>
   <dc:date>2023-07-07T09:21:13Z</dc:date>
   <dc:date>2023-07-07T09:21:13Z</dc:date>
   <dc:date>2023-07-07</dc:date>
   <dc:date>2023-06-29T22:09:01Z</dc:date>
   <dc:type>Dataset</dc:type>
   <dc:identifier>https://hdl.handle.net/20.500.14123/62</dc:identifier>
   <dc:identifier>https://doi.org/10.48548/pubdata-46</dc:identifier>
   <dc:format>application/octet-stream</dc:format>
   <dc:format>application/octet-stream</dc:format>
   <dc:format>application/octet-stream</dc:format>
   <dc:format>application/octet-stream</dc:format>
   <dc:format>text/plain</dc:format>
   <dc:format>text/plain</dc:format>
   <dc:format>text/plain</dc:format>
   <dc:format>text/plain</dc:format>
</oai_dc:dc></metadata></record>
<resumptionToken completeListSize="123" cursor="0">oai_dc///com_123456789_3/100</resumptionToken></ListRecords></OAI-PMH>