<?xml version="1.0" encoding="UTF-8"?><?xml-stylesheet type="text/xsl" href="static/style.xsl"?><OAI-PMH xmlns="http://www.openarchives.org/OAI/2.0/" xmlns:xsi="http://www.w3.org/2001/XMLSchema-instance" xsi:schemaLocation="http://www.openarchives.org/OAI/2.0/ http://www.openarchives.org/OAI/2.0/OAI-PMH.xsd"><responseDate>2025-03-26T13:06:18Z</responseDate><request verb="ListRecords" metadataPrefix="dim">https://pubdata.leuphana.de/oai/request</request><ListRecords><record><header><identifier>oai:pubdata.leuphana.de:20.500.14123/517</identifier><datestamp>2024-06-12T10:10:18Z</datestamp><setSpec>com_123456789_1</setSpec><setSpec>col_123456789_2</setSpec></header><metadata><dim:dim xmlns:dim="http://www.dspace.org/xmlns/dspace/dim" xmlns:xsi="http://www.w3.org/2001/XMLSchema-instance" xmlns:doc="http://www.lyncode.com/xoai" xsi:schemaLocation="http://www.dspace.org/xmlns/dspace/dim http://www.dspace.org/schema/dim.xsd">
   <dim:field mdschema="dc" element="contributor" qualifier="advisor" authority="ea757d28d704b437fadc0106e422dc6194361fc49d9fcf62aace39a46f515097" confidence="600">{"affiliationIdentifierRor":[""],"organizationName":[],"ror":[""],"affiliation":[""],"givenName":["Thorsten"],"familyName":["Aßmann"],"orcid":["0000-0002-9203-769X"],"gnd":["1051421667"],"contributorType":[""],"authorityType":["Person"]}</dim:field>
   <dim:field mdschema="dc" element="contributor" qualifier="author" authority="cf0cf9199d0b59dc4b33d601e721b3282308532088491b81742fee4abb351861" confidence="600">{"affiliationIdentifierRor":[""],"organizationName":[],"ror":[""],"affiliation":[""],"givenName":["Tamar"],"familyName":["Marcus"],"orcid":[""],"gnd":[""],"contributorType":[""],"authorityType":["Person"]}</dim:field>
   <dim:field mdschema="dc" element="contributor" qualifier="referee" authority="a1c6f816802b5f52a2ea2414eea31c9e62a7ab3dff3be0bca3cbbb4f0de975e7" confidence="600">{"affiliationIdentifierRor":[""],"organizationName":[],"ror":[""],"affiliation":[""],"givenName":["Thorsten"],"familyName":["Aßmann"],"orcid":["0000-0002-9203-769X"],"gnd":["1051421667"],"contributorType":[""],"authorityType":["Person"]}</dim:field>
   <dim:field mdschema="dc" element="contributor" qualifier="referee" authority="174fc97062f3ad36cd426f4ace2b1ee3fab36146f00906ca20c6767c940f5022" confidence="600">{"affiliationIdentifierRor":[""],"organizationName":[],"ror":[""],"affiliation":[""],"givenName":["Jörg U."],"familyName":["Ganzhorn"],"orcid":["0000-0003-1395-9758"],"gnd":["111094488"],"contributorType":[""],"authorityType":["Person"]}</dim:field>
   <dim:field mdschema="dc" element="contributor" qualifier="referee" authority="a30685465f54a0f7e536aff34d2724338c6c8d34cf3dd45c5ee9c4330891123d" confidence="600">{"affiliationIdentifierRor":[""],"organizationName":[],"ror":[""],"affiliation":[""],"givenName":["Pietro"],"familyName":["Brandmayr"],"orcid":[""],"gnd":[""],"contributorType":[""],"authorityType":["Person"]}</dim:field>
   <dim:field mdschema="dc" element="contributor" qualifier="grantor">Leuphana Universität Lüneburg</dim:field>
   <dim:field mdschema="dc" element="date" qualifier="accessioned">2024-05-30T13:34:25Z</dim:field>
   <dim:field mdschema="dc" element="date" qualifier="available">2017-04-10T13:03:33Z</dim:field>
   <dim:field mdschema="dc" element="date" qualifier="available">2024-05-30T13:34:25Z</dim:field>
   <dim:field mdschema="dc" element="date" qualifier="issued">2017-04-10</dim:field>
   <dim:field mdschema="dc" element="date" qualifier="accepted">2017-02-16</dim:field>
   <dim:field mdschema="dc" element="identifier" qualifier="uri">https://hdl.handle.net/20.500.14123/517</dim:field>
   <dim:field mdschema="dc" element="identifier" qualifier="uri">https://doi.org/10.48548/pubdata-482</dim:field>
   <dim:field mdschema="dc" element="subject" qualifier="ddc">333.7</dim:field>
   <dim:field mdschema="dc" element="title" lang="en">Testing paradigms in conservation biology: spatio-temporal dimensions of habitat fragmentation in a stenotopic woodland ground beetle</dim:field>
   <dim:field mdschema="dc" element="type">Dissertation</dim:field>
   <dim:field mdschema="local" element="Subject" qualifier="keyword" lang="de">Käfer</dim:field>
   <dim:field mdschema="local" element="Subject" qualifier="keyword" lang="de">Wald</dim:field>
   <dim:field mdschema="local" element="Subject" qualifier="keyword" lang="de">Lebensraum</dim:field>
   <dim:field mdschema="local" element="Identifier" qualifier="opus3">14438</dim:field>
   <dim:field mdschema="local" element="Identifier" qualifier="opus4">802</dim:field>
   <dim:field mdschema="local" element="Identifier" qualifier="urn">https://nbn-resolving.org/urn:nbn:de:gbv:luen4-opus-144386</dim:field>
   <dim:field mdschema="local" element="BitstreamLicenses">{"Marcus_thesis_final.pdf":"Nutzung nach Urheberrecht"}</dim:field>
   <dim:field mdschema="local" element="Archive">{"affiliationIdentifierRor":["02w2y2t16"],"organizationName":["Medien- und Informationszentrum"],"ror":[""],"affiliation":["Leuphana Universität Lüneburg"],"givenName":[""],"familyName":[""],"orcid":[""],"contributorType":["Other"],"authorityType":["Organization"]}</dim:field>
   <dim:field mdschema="local" element="Host">{"affiliationIdentifierRor":["02w2y2t16"],"organizationName":["Medien- und Informationszentrum"],"ror":[""],"affiliation":["Leuphana Universität Lüneburg"],"givenName":[""],"familyName":[""],"orcid":[""],"contributorType":["HostingInstitution"],"authorityType":["Organization"]}</dim:field>
   <dim:field mdschema="local" element="RegistrationAgency">{"affiliation":["Niedersächsische Ministerium für Wissenschaft und Kultur"],"affiliationIdentifierRor":["0116z8r77"],"organizationName":["Technische Informationsbibliothek (TIB) Hannover"],"ror":["04aj4c181"],"givenName":[""],"familyName":[""],"orcid":[""],"contributorType":["RegistrationAgency"],"authorityType":["Organization"]}</dim:field>
   <dim:field mdschema="local" element="DataCurator" authority="f4cb35c8-a7d6-4ea4-a812-69a7850dd0ea" confidence="300">{"affiliation":["Leuphana Universität Lüneburg"],"affiliationIdentifierRor":["02w2y2t16"],"organizationName":["Medien- und Informationszentrum"],"ror":[""],"givenName":[""],"familyName":[""],"orcid":[""],"contributorType":["DataCurator"],"authorityType":["Organization"]}</dim:field>
   <dim:field mdschema="local" element="DataManager" authority="f555d27b-84f5-444b-8e46-422560b57aca" confidence="300">{"affiliation":["Leuphana Universität Lüneburg"],"affiliationIdentifierRor":["02w2y2t16"],"organizationName":["Medien- und Informationszentrum"],"ror":[""],"givenName":[""],"familyName":[""],"orcid":[""],"contributorType":["DataManager"],"authorityType":["Organization"]}</dim:field>
   <dim:field mdschema="local" element="PublishingType">First publication</dim:field>
   <dim:field mdschema="local" element="CreationContext">Research</dim:field>
   <dim:field mdschema="local" element="Affiliation">Fakultät Nachhaltigkeit / Institut für Ökologie (IE)</dim:field>
   <dim:field mdschema="DataCite" element="Title" qualifier="AlternativeTitle" lang="de">Testparadigmen in der Erhaltungsbiologie: Räumlich-zeitliche Dimensionen der Lebensraumfragmentierung in einem stenotopischen Waldbodenkäfer</dim:field>
   <dim:field mdschema="DataCite" element="Description" qualifier="Abstract" lang="en">The effects of habitat fragmentation and land use changes are usually studied by relating patterns of genetic diversity and differentiation to environmental factors, habitat history, landscape structure, or to a combination thereof. However, these three drivers are rarely addressed simultaneously. In addition, these studies are usually carried out in conservation-driven contexts, and therefore tend to concentrate on hyper-fragmented landscapes and on rare or endangered species. However, how habitat fragmentation and land use affect widespread species in more typical landscapes has not been fully investigated. This thesis addresses these two gaps. Abax parallelepipedus, a flightless ground beetle with low dispersal power, was used as a model species to test how environmental factors, habitat history, and landscape structure affect genetic diversity and genetic differentiation in three study regions located across Germany. Although all of the study regions represent fairly typical rural landscapes for central Europe, each consisting of a complex matrix of land uses, they differ from one another in terms of environmental factors, habitat history, and landscape structure, and thus can serve as three test cases. In the first stage of the work, the investigator identified polymorphic microsatellite loci which could potentially be used to study genetic diversity and differentiation in A. parallelepipedus. She then developed PCR and genotyping protocols for two suites of loci, in the end selecting to use the set of 14 fully multiplexed loci for the study. After having developed the needed study system, she genotyped over 3300 beetles from 142 study sites. In her investigation of how environmental factors and habitat history affect genetic diversity and genetic differentiation, and found that genetic diversity was being driven by variables that could be related to population sizes rather than by habitat history. She also did not find evidence of an influence of habitat history on the genetic differentiation patterns. Although populations of A. parallelepipedus in the past were probably smaller due to deforestation, they apparently remained large enough to prevent rapid genetic drift. In addition, the researcher carried out a landscape genetics analysis of the genetic differentiation patterns found in each of her study regions, in which she examined the relationship between genetic differentiation and landscape structure. She tested whether she could find patterns of isolation by distance, isolation by resistance, or isolation by barriers in the study regions. No effects of land use or of fragmentation were found. Based on the importance of population sizes found in the previous study, combined with the beetle's known avoidance of non-wooded areas and its inability to cross roads, the investigator concludes that although there is probably little gene flow across the study regions, large population sizes are preventing the rapid development of genetic differentiation. Models simulating the development of genetic differentiation over time in populations of different starting sizes support this conclusion.</dim:field>
   <dim:field mdschema="DataCite" element="Language">eng</dim:field>
   <dim:field mdschema="DataCite" element="PublicationYear">2017</dim:field>
   <dim:field mdschema="DataCite" element="Publisher">Medien- und Informationszentrum, Leuphana Universität Lüneburg</dim:field>
</dim:dim></metadata></record><record><header><identifier>oai:pubdata.leuphana.de:20.500.14123/1024</identifier><datestamp>2024-06-05T12:16:50Z</datestamp><setSpec>com_123456789_1</setSpec><setSpec>col_123456789_2</setSpec></header><metadata><dim:dim xmlns:dim="http://www.dspace.org/xmlns/dspace/dim" xmlns:xsi="http://www.w3.org/2001/XMLSchema-instance" xmlns:doc="http://www.lyncode.com/xoai" xsi:schemaLocation="http://www.dspace.org/xmlns/dspace/dim http://www.dspace.org/schema/dim.xsd">
   <dim:field mdschema="dc" element="contributor" qualifier="author" authority="cc01136d22275fe5bbe4884e968b1f4b56ee2b33fff35007363fcc302bea648e" confidence="600">{"affiliationIdentifierRor":[""],"organizationName":[],"ror":[""],"affiliation":[""],"givenName":["Natascha"],"familyName":["Ritter"],"orcid":[""],"gnd":[""],"contributorType":[""],"authorityType":["Person"]}</dim:field>
   <dim:field mdschema="dc" element="contributor" qualifier="grantor">Leuphana Universität Lüneburg</dim:field>
   <dim:field mdschema="dc" element="date" qualifier="accessioned">2024-06-05T11:48:33Z</dim:field>
   <dim:field mdschema="dc" element="date" qualifier="available">2008-04-29T06:36:21Z</dim:field>
   <dim:field mdschema="dc" element="date" qualifier="available">2024-06-05T11:48:33Z</dim:field>
   <dim:field mdschema="dc" element="date" qualifier="issued">2008-04-29</dim:field>
   <dim:field mdschema="dc" element="identifier" qualifier="uri">https://hdl.handle.net/20.500.14123/1024</dim:field>
   <dim:field mdschema="dc" element="identifier" qualifier="uri">https://doi.org/10.48548/pubdata-983</dim:field>
   <dim:field mdschema="dc" element="subject" qualifier="ddc">600</dim:field>
   <dim:field mdschema="dc" element="title" lang="de">Recherche und Vergleich aktueller Forschungsarbeiten zur Fahrzeugumfelderkennung im Automobilbereich</dim:field>
   <dim:field mdschema="dc" element="type">Text.Diplomathesis</dim:field>
   <dim:field mdschema="local" element="Subject" qualifier="keyword" lang="de">Fahrerassistenzsystem</dim:field>
   <dim:field mdschema="local" element="Subject" qualifier="keyword" lang="de">Sensortechnik</dim:field>
   <dim:field mdschema="local" element="Subject" qualifier="keyword" lang="de">Objekterkennung</dim:field>
   <dim:field mdschema="local" element="Subject" qualifier="keyword" lang="de">Umfelderfassung</dim:field>
   <dim:field mdschema="local" element="Subject" qualifier="keyword" lang="de">Objektdetektion</dim:field>
   <dim:field mdschema="local" element="Subject" qualifier="keyword" lang="de">Objektklassifikation</dim:field>
   <dim:field mdschema="local" element="Identifier" qualifier="opus3">14153</dim:field>
   <dim:field mdschema="local" element="Identifier" qualifier="opus4">547</dim:field>
   <dim:field mdschema="local" element="Identifier" qualifier="urn">https://nbn-resolving.org/urn:nbn:de:gbv:luen4-opus-141539</dim:field>
   <dim:field mdschema="local" element="BitstreamLicenses">{"Endversion_Diplomarbeit_Natascha_Ritter_Lueneburg.pdf":"Nutzung nach Urheberrecht"}</dim:field>
   <dim:field mdschema="local" element="Archive">{"affiliationIdentifierRor":["02w2y2t16"],"organizationName":["Medien- und Informationszentrum"],"ror":[""],"affiliation":["Leuphana Universität Lüneburg"],"givenName":[""],"familyName":[""],"orcid":[""],"contributorType":["Other"],"authorityType":["Organization"]}</dim:field>
   <dim:field mdschema="local" element="Host">{"affiliationIdentifierRor":["02w2y2t16"],"organizationName":["Medien- und Informationszentrum"],"ror":[""],"affiliation":["Leuphana Universität Lüneburg"],"givenName":[""],"familyName":[""],"orcid":[""],"contributorType":["HostingInstitution"],"authorityType":["Organization"]}</dim:field>
   <dim:field mdschema="local" element="RegistrationAgency">{"affiliation":["Niedersächsische Ministerium für Wissenschaft und Kultur"],"affiliationIdentifierRor":["0116z8r77"],"organizationName":["Technische Informationsbibliothek (TIB) Hannover"],"ror":["04aj4c181"],"givenName":[""],"familyName":[""],"orcid":[""],"contributorType":["RegistrationAgency"],"authorityType":["Organization"]}</dim:field>
   <dim:field mdschema="local" element="DataCurator" authority="c153b4fe-7c2e-4056-a543-c1bdd2bbc8d5" confidence="300">{"affiliation":["Leuphana Universität Lüneburg"],"affiliationIdentifierRor":["02w2y2t16"],"organizationName":["Medien- und Informationszentrum"],"ror":[""],"givenName":[""],"familyName":[""],"orcid":[""],"contributorType":["DataCurator"],"authorityType":["Organization"]}</dim:field>
   <dim:field mdschema="local" element="DataManager" authority="af009ec4-f178-4484-b4d0-d3fcfc38dfba" confidence="300">{"affiliation":["Leuphana Universität Lüneburg"],"affiliationIdentifierRor":["02w2y2t16"],"organizationName":["Medien- und Informationszentrum"],"ror":[""],"givenName":[""],"familyName":[""],"orcid":[""],"contributorType":["DataManager"],"authorityType":["Organization"]}</dim:field>
   <dim:field mdschema="local" element="PublishingType">First publication</dim:field>
   <dim:field mdschema="local" element="CreationContext">Study</dim:field>
   <dim:field mdschema="local" element="Affiliation">Fakultät Umwelt und Technik / Automatisierungstechnik/Wirtschafts.-Ing.</dim:field>
   <dim:field mdschema="DataCite" element="Title" qualifier="AlternativeTitle" lang="en">Research and comparison of current research activities for vehicle environment detection in automotive context</dim:field>
   <dim:field mdschema="DataCite" element="Description" qualifier="Abstract" lang="en">The Institution of Traffic Safety and Automation Engineering of the "Technische Universität Braunschweig" plans to perform several measurements for the vehicle environment detection with their experimental vehicle CarLa. The experimental vehicle should purpose as a generic test platform in the future. For this study current research activities for vehicle environment detection have been researched and compared. The most important driver assistance systems and vehicle sensors for environment detection are introduced. For this the basic measurement methods and the Kalman-Filter are described. The following chapters describe the processes for object detection and tracking with camera systems and lidar sensors. The "edges-model-process", the "colour-regions-flux" and the "colour-cluster-flux" are introduced. For the object classification methods are described, where bounding-boxes, edges-operators and the reflectivity of objects are used. Furthermore examples for interpretation of traffic situations are given, which are observed with the help of object detection, tracking and classification. The described processes can cleary recognize the vehicle environment. They can differentiate between road users, border elements and road signs, furthermore the run of the lane and the velocities of the vehicles can be determined. A recognition and forecast is with the help of these information’s possible. The applications of the described technologies in driver assistance systems enforce more and more in behaviour systems. The applications in security-relevant systems are current delayed by open questions about reliability and liability.</dim:field>
   <dim:field mdschema="DataCite" element="Description" qualifier="Abstract" lang="de">Das Institut für Verkehrssicherheit und Automatisierungstechnik der Technischen Universität Braunschweig plant mit ihrem Versuchsfahrzeug CarLa verschiedene Messungen im Bereich Fahrzeugumfelderfassung durchzuführen. Das Versuchsfahrzeug soll zukünftig als generische Versuchsplattform für Fahrerassistenzsysteme dienen. Für diese Arbeit wurden aktuelle Forschungsarbeiten zur Fahrzeugumfelderkennung recherchiert und verglichen. Einführend werden die wichtigsten aktuellen Fahrerassistenzsysteme und die verwendeten Sensoren zur Umfelderfassung vorgestellt. Hierzu werden auch die grundlegenden Messverfahren und das Kalman-Filter beschrieben. Es werden Verfahren zur Objektdetektion und Objektverfolgung mit Kamerasystemen und Lidar-Sensoren beschrieben, es wird das Kantenschablonenverfahren so wie der Farbregionen- und der Farbclusterfluss vorgestellt. Bei der Objektklassifikation werden Methoden beschrieben, bei denen Bounding-Boxen, Kantenoperatoren und der Reflexionsgrad von Objekten verwendet werden. Außerdem werden Beispiele für die Interpretation der Verkehrssituation gegeben, die mit Hilfe der Objektdetektion, -verfolgung und –klassifikation beobachtet werden. Mit den beschriebenen Verfahren kann das Umfeld eindeutig erkannt werden. Es kann zwischen Verkehrsteilnehmern, Randelementen und Verkehrszeichen unterschieden werden, außerdem kann der Verlauf der Fahrbahn und die Geschwindigkeiten von Fahrzeugen ermittelt werden. Eine Erkennung und Prognose der Verkehrssituation ist mit Hilfe dieser Informationen möglich. Der Einsatz der beschriebenen Technologien in FAS setzt sich mehr und mehr bei Komfortsystemen durch. Der Einsatz in sicherheitsrelevanten Systemen wird aktuell noch durch ungeklärte Zuverlässigkeits- und Haftungsrechtliche Fragen verzögert.</dim:field>
   <dim:field mdschema="DataCite" element="Language">deu</dim:field>
   <dim:field mdschema="DataCite" element="PublicationYear">2008</dim:field>
   <dim:field mdschema="DataCite" element="Publisher">Medien- und Informationszentrum, Leuphana Universität Lüneburg</dim:field>
</dim:dim></metadata></record><record><header><identifier>oai:pubdata.leuphana.de:20.500.14123/1174</identifier><datestamp>2024-12-04T16:59:52Z</datestamp><setSpec>com_123456789_1</setSpec><setSpec>col_123456789_2</setSpec></header><metadata><dim:dim xmlns:dim="http://www.dspace.org/xmlns/dspace/dim" xmlns:xsi="http://www.w3.org/2001/XMLSchema-instance" xmlns:doc="http://www.lyncode.com/xoai" xsi:schemaLocation="http://www.dspace.org/xmlns/dspace/dim http://www.dspace.org/schema/dim.xsd">
   <dim:field mdschema="dc" element="contributor" qualifier="author" authority="bf52dc8da8a150dc6b3554d87c1e1bd01c5d87a0d71c348e390e633fe6b5e0a7" confidence="600">{"affiliationIdentifierRor":[""],"organizationName":[],"ror":[""],"affiliation":[""],"givenName":["Ignatz"],"familyName":["Kerscher"],"orcid":[""],"gnd":["131389572"],"contributorType":[""],"authorityType":["Person"]}</dim:field>
   <dim:field mdschema="dc" element="date" qualifier="accessioned">2024-08-22T09:06:17Z</dim:field>
   <dim:field mdschema="dc" element="date" qualifier="available">2006-05-08T12:02:32Z</dim:field>
   <dim:field mdschema="dc" element="date" qualifier="available">2024-08-22T09:06:17Z</dim:field>
   <dim:field mdschema="dc" element="date" qualifier="issued">2006-05-08</dim:field>
   <dim:field mdschema="dc" element="identifier" qualifier="uri">https://hdl.handle.net/20.500.14123/1174</dim:field>
   <dim:field mdschema="dc" element="identifier" qualifier="uri">https://doi.org/10.48548/pubdata-1113</dim:field>
   <dim:field mdschema="dc" element="subject" qualifier="ddc">150</dim:field>
   <dim:field mdschema="dc" element="title" lang="de">Zum Verhältnis von Sexualverhalten, sexuellen Funktionsstörungen und Persönlichkeitstypus</dim:field>
   <dim:field mdschema="dc" element="type">Report</dim:field>
   <dim:field mdschema="dc" element="type" qualifier="version">publishedVersion</dim:field>
   <dim:field mdschema="local" element="Subject" qualifier="keyword" lang="en">Sexual Behavior</dim:field>
   <dim:field mdschema="local" element="Subject" qualifier="keyword" lang="en">Character</dim:field>
   <dim:field mdschema="local" element="Subject" qualifier="keyword" lang="en">Personality</dim:field>
   <dim:field mdschema="local" element="Subject" qualifier="keyword" lang="en">Psychoanalysis</dim:field>
   <dim:field mdschema="local" element="Subject" qualifier="keyword" lang="de">Sexualverhalten</dim:field>
   <dim:field mdschema="local" element="Subject" qualifier="keyword" lang="de">Charakter</dim:field>
   <dim:field mdschema="local" element="Subject" qualifier="keyword" lang="de">Persönlichkeit</dim:field>
   <dim:field mdschema="local" element="Subject" qualifier="keyword" lang="de">Psychoanalyse</dim:field>
   <dim:field mdschema="local" element="Identifier" qualifier="opus3">356</dim:field>
   <dim:field mdschema="local" element="Identifier" qualifier="opus4">403</dim:field>
   <dim:field mdschema="local" element="Identifier" qualifier="urn">https://nbn-resolving.org/urn:nbn:de:gbv:luen4-opus4-4032</dim:field>
   <dim:field mdschema="local" element="BitstreamLicenses">{"Charakter_Sex.pdf":"Nutzung nach Urheberrecht"}</dim:field>
   <dim:field mdschema="local" element="Archive">{"affiliationIdentifierRor":["02w2y2t16"],"organizationName":["Medien- und Informationszentrum"],"ror":[""],"affiliation":["Leuphana Universität Lüneburg"],"givenName":[""],"familyName":[""],"orcid":[""],"contributorType":["Other"],"authorityType":["Organization"]}</dim:field>
   <dim:field mdschema="local" element="Host">{"affiliationIdentifierRor":["02w2y2t16"],"organizationName":["Medien- und Informationszentrum"],"ror":[""],"affiliation":["Leuphana Universität Lüneburg"],"givenName":[""],"familyName":[""],"orcid":[""],"contributorType":["HostingInstitution"],"authorityType":["Organization"]}</dim:field>
   <dim:field mdschema="local" element="RegistrationAgency">{"affiliation":["Niedersächsische Ministerium für Wissenschaft und Kultur"],"affiliationIdentifierRor":["0116z8r77"],"organizationName":["Technische Informationsbibliothek (TIB) Hannover"],"ror":["04aj4c181"],"givenName":[""],"familyName":[""],"orcid":[""],"contributorType":["RegistrationAgency"],"authorityType":["Organization"]}</dim:field>
   <dim:field mdschema="local" element="DataCurator" authority="ea2c22d2-1da5-4f42-8e68-6fa7f2ceba37" confidence="300">{"affiliation":["Leuphana Universität Lüneburg"],"affiliationIdentifierRor":["02w2y2t16"],"organizationName":["Medien- und Informationszentrum"],"ror":[""],"givenName":[""],"familyName":[""],"orcid":[""],"contributorType":["DataCurator"],"authorityType":["Organization"]}</dim:field>
   <dim:field mdschema="local" element="DataManager" authority="dbcffdf6-aa94-4d8d-92c3-dbb2c99b3924" confidence="300">{"affiliation":["Leuphana Universität Lüneburg"],"affiliationIdentifierRor":["02w2y2t16"],"organizationName":["Medien- und Informationszentrum"],"ror":[""],"givenName":[""],"familyName":[""],"orcid":[""],"contributorType":["DataManager"],"authorityType":["Organization"]}</dim:field>
   <dim:field mdschema="local" element="PublishingType">First publication</dim:field>
   <dim:field mdschema="local" element="CreationContext">Research</dim:field>
   <dim:field mdschema="local" element="Affiliation">Frühere Fachbereiche</dim:field>
   <dim:field mdschema="DataCite" element="Title" qualifier="AlternativeTitle" lang="en">The relationship of sexual behavior, sexual functional disorder and personality type</dim:field>
   <dim:field mdschema="DataCite" element="Language">deu</dim:field>
   <dim:field mdschema="DataCite" element="PublicationYear">2006</dim:field>
   <dim:field mdschema="DataCite" element="Publisher">Medien- und Informationszentrum, Leuphana Universität Lüneburg</dim:field>
</dim:dim></metadata></record><resumptionToken completeListSize="1690" cursor="0">dim////100</resumptionToken></ListRecords></OAI-PMH>